<svg width="170" height="150" viewBox="0 0 188 211" fill="none" xmlns="http://www.w3.org/2000/svg">
<path d="M94.5416 210.997C91.4538 210.986 88.3794 210.565 85.3906 209.744L84.8015 209.571L84.255 209.281C64.4984 198.794 47.8308 184.941 34.7152 168.107C23.8582 154.091 15.3935 138.177 9.70195 121.081C2.89568 100.612 -0.378802 79.0151 0.0348183 57.3196C0.0431644 56.8642 0.0502277 56.5126 0.0502277 56.2703C0.0502277 45.724 5.57925 36.4704 14.136 32.6955C20.685 29.8064 80.1463 3.94778 84.4425 2.07942C92.5334 -2.21295 101.165 1.3697 102.546 1.99622C105.645 3.33743 160.613 27.1416 172.492 33.1303C184.734 39.3025 188 50.3907 188 55.9693C188 81.2255 183.869 104.829 175.721 126.125C169.141 143.363 159.814 159.277 148.148 173.173C125.64 199.992 103.126 209.499 102.909 209.583C100.218 210.563 97.3869 211.042 94.5416 210.997ZM89.247 197.111C91.1989 197.575 95.6929 198.27 98.6219 197.138C102.343 195.702 121.187 185.356 138.796 164.374C163.126 135.386 175.471 98.9442 175.489 56.0625C175.446 55.1937 174.863 48.9974 167.113 45.0902C155.464 39.2173 98.3296 14.4817 97.7538 14.2324L97.5959 14.1616C96.3986 13.6303 92.588 12.5114 89.9613 13.9687L89.4354 14.2283C88.7985 14.5053 25.6797 41.9532 18.948 44.9229C14.2391 47.0003 12.5613 52.1467 12.5613 56.2704C12.5613 56.5717 12.5539 57.01 12.5435 57.5766C12.0055 86.9179 18.4183 159.118 89.247 197.111Z" fill="#3F3D56"/>
<path d="M87.0587 8.10164C87.0587 8.10164 23.3663 35.7986 16.542 38.8092C9.71784 41.8197 6.30574 49.045 6.30574 56.2703C6.30574 63.4957 1.1876 157.776 87.0587 203.361C87.0587 203.361 94.8524 205.644 100.765 203.361C106.678 201.077 181.744 162.542 181.744 55.9693C181.744 55.9693 181.744 45.1313 169.802 39.1102C157.86 33.0891 100.121 8.10164 100.121 8.10164C100.121 8.10164 93.0299 4.79005 87.0587 8.10164Z" fill="#AFAFAF"/>
<path opacity="0.1" d="M93.6463 31.7079V179.461C93.6463 179.461 29.3851 146.711 29.9538 60.6091L93.6463 31.7079Z" fill="black"/>
<path opacity="0.1" d="M156.799 60.9068L94.1061 32.4836V178.494C94.5708 178.236 95.2478 177.85 96.1072 177.33C97.8518 176.274 100.347 174.668 103.342 172.471C109.332 168.078 117.316 161.326 125.283 151.895C141.173 133.084 157.002 103.61 156.799 60.9068Z" fill="black" stroke="black"/>
</svg>
